// Jest Snapshot v1, https://goo.gl/fbAQLP

exports[`Root renders 1`] = `
<div
  id="provider_wrapper"
>
  <Provider>
    <BrowserRouter>
      <Route
        component={
          Object {
            "$$typeof": Symbol(react.memo),
            "WrappedComponent": [Function],
            "compare": null,
            "displayName": "Connect(ScreenConductor)",
            "type": [Function],
          }
        }
        path="/"
      />
    </BrowserRouter>
  </Provider>
</div>
`;
