// Jest Snapshot v1, https://goo.gl/fbAQLP

exports[`ScreenConductor renders 1`] = `
<div>
  <SitewideNav />
  <Route
    component={
      Object {
        "$$typeof": Symbol(react.memo),
        "WrappedComponent": [Function],
        "compare": null,
        "displayName": "Connect(HelloWorld)",
        "type": [Function],
      }
    }
    exact={true}
    path="/"
  />
  <Footer />
</div>
`;
